#! /usr/bin/vvp
:ivl_version "10.3 (stable)";
:ivl_delay_selection "TYPICAL";
:vpi_time_precision - 10;
:vpi_module "system";
:vpi_module "vhdl_sys";
:vpi_module "v2005_math";
:vpi_module "va_math";
S_0x563f85d3f250 .scope module, "probador" "probador" 2 1;
 .timescale -9 -10;
    .port_info 0 /OUTPUT 1 "reset_L"
    .port_info 1 /OUTPUT 1 "clk"
    .port_info 2 /OUTPUT 1 "clk_8f"
    .port_info 3 /OUTPUT 8 "data_in"
    .port_info 4 /OUTPUT 1 "clase"
    .port_info 5 /OUTPUT 1 "push"
    .port_info 6 /OUTPUT 1 "dest"
    .port_info 7 /INPUT 1 "data_out_serial0"
    .port_info 8 /INPUT 1 "data_out_serial1"
P_0x563f85d5fc40 .param/l "BW" 0 2 1, +C4<00000000000000000000000000001010>;
v0x563f85d3c9a0_0 .var "clase", 0 0;
v0x563f85d3cbc0_0 .var "clk", 0 0;
v0x563f85d3cdd0_0 .var "clk_2f", 0 0;
v0x563f85d3d390_0 .var "clk_4f", 0 0;
v0x563f85d73d00_0 .var "clk_8f", 0 0;
v0x563f85d73e10_0 .var "data_in", 7 0;
o0x7f9957cdd138 .functor BUFZ 1, C4<z>; HiZ drive
v0x563f85d73ef0_0 .net "data_out_serial0", 0 0, o0x7f9957cdd138;  0 drivers
o0x7f9957cdd168 .functor BUFZ 1, C4<z>; HiZ drive
v0x563f85d73fb0_0 .net "data_out_serial1", 0 0, o0x7f9957cdd168;  0 drivers
v0x563f85d74070_0 .var "dest", 0 0;
v0x563f85d74130_0 .var "push", 0 0;
v0x563f85d741f0_0 .var "reset_L", 0 0;
E_0x563f85d604e0 .event posedge, v0x563f85d3cdd0_0;
E_0x563f85d600e0 .event posedge, v0x563f85d3d390_0;
E_0x563f85d5fe80 .event posedge, v0x563f85d73d00_0;
E_0x563f85d2a820 .event posedge, v0x563f85d3cbc0_0;
    .scope S_0x563f85d3f250;
T_0 ;
    %vpi_call 2 16 "$dumpfile", "waves.vcd" {0 0 0};
    %vpi_call 2 17 "$dumpvars" {0 0 0};
    %pushi/vec4 0, 0, 1;
    %assign/vec4 v0x563f85d74130_0, 0;
    %pushi/vec4 0, 0, 1;
    %assign/vec4 v0x563f85d3c9a0_0, 0;
    %pushi/vec4 0, 0, 1;
    %assign/vec4 v0x563f85d74070_0, 0;
    %pushi/vec4 0, 0, 8;
    %assign/vec4 v0x563f85d73e10_0, 0;
    %pushi/vec4 0, 0, 1;
    %assign/vec4 v0x563f85d741f0_0, 0;
    %wait E_0x563f85d2a820;
    %wait E_0x563f85d2a820;
    %wait E_0x563f85d2a820;
    %pushi/vec4 1, 0, 1;
    %assign/vec4 v0x563f85d741f0_0, 0;
    %pushi/vec4 1, 0, 1;
    %assign/vec4 v0x563f85d74130_0, 0;
    %pushi/vec4 1, 0, 8;
    %assign/vec4 v0x563f85d73e10_0, 0;
    %wait E_0x563f85d2a820;
    %pushi/vec4 2, 0, 8;
    %assign/vec4 v0x563f85d73e10_0, 0;
    %wait E_0x563f85d2a820;
    %pushi/vec4 0, 0, 1;
    %assign/vec4 v0x563f85d74130_0, 0;
    %vpi_call 2 36 "$finish" {0 0 0};
    %end;
    .thread T_0;
    .scope S_0x563f85d3f250;
T_1 ;
    %wait E_0x563f85d5fe80;
    %load/vec4 v0x563f85d3d390_0;
    %inv;
    %assign/vec4 v0x563f85d3d390_0, 0;
    %jmp T_1;
    .thread T_1;
    .scope S_0x563f85d3f250;
T_2 ;
    %wait E_0x563f85d600e0;
    %load/vec4 v0x563f85d3cdd0_0;
    %inv;
    %assign/vec4 v0x563f85d3cdd0_0, 0;
    %jmp T_2;
    .thread T_2;
    .scope S_0x563f85d3f250;
T_3 ;
    %wait E_0x563f85d604e0;
    %load/vec4 v0x563f85d3cbc0_0;
    %inv;
    %assign/vec4 v0x563f85d3cbc0_0, 0;
    %jmp T_3;
    .thread T_3;
    .scope S_0x563f85d3f250;
T_4 ;
    %pushi/vec4 0, 0, 1;
    %assign/vec4 v0x563f85d3cbc0_0, 0;
    %end;
    .thread T_4;
    .scope S_0x563f85d3f250;
T_5 ;
    %delay 80, 0;
    %load/vec4 v0x563f85d73d00_0;
    %inv;
    %assign/vec4 v0x563f85d73d00_0, 0;
    %jmp T_5;
    .thread T_5;
# The file index is used to find the file name in the following table.
:file_names 3;
    "N/A";
    "<interactive>";
    "./probador_D1.v";
